[
  {
    "id": "1",
    "title": "Google Glasses",
    "date": "6/12/2016",
    "comment": "00.00.00tamer",
    "videoThumbnail": "2130837654",
    "type": "dash",
    "source": "Other",
    "user_id": "32A8E68F-17F1-4628-A8B7-D922467CF9CF",
    "url": "http://www.youtube.com/api/manifest/dash/id/bf5bb2419360daf1/source/youtube?as=fmp4_audio_clear,fmp4_sd_hd_clear&sparams=ip,ipbits,expire,source,id,as&ip=0.0.0.0&ipbits=0&expire=19000000000&signature=51AF5F39AB0CEC3E5497CD9C900EBFEAECCCB5C7.8506521BFC350652163895D4C26DEE124209AA9E&key=ik0",
    "tags": [
      "google",
      "glasses",
      "newtechnologies"
    ]
  },
  {
    "id": "2",
    "title": "Super Speedway",
    "date": "30/01/2017",
    "comment": "00.00.39imaginons",
    "videoThumbnail": "2130837654",
    "type": "ss",
    "source": "Other",
    "user_id": "32A8E68F-17F1-4628-A8B7-D922467CF9CF",
    "url": "http://playready.directtaps.net/smoothstreaming/SSWSS720H264/SuperSpeedway_720.ism",
    "tags": [
      "trump",
      "president",
      "save",
      "western",
      "civilization"
    ]
  },
  {
    "id": "3",
    "title": "Big Buck Bunny",
    "date": "30/01/2017",
    "comment": "",
    "videoThumbnail": "2130837654",
    "type": "hls",
    "source": "Other",
    "user_id": "32A8E68F-17F1-4628-A8B7-D922467CF9CF",
    "url": "http://playertest.longtailvideo.com/adaptive/bbbfull/bbbfull.m3u8",
    "tags": [
      "trump",
      "hearthstone",
      "hs",
      "january",
      "epics",
      "moments"
    ]
  },
  {
    "id": "32A8E68F-17F1-4628-A8B7-D922467CF9CF",
    "title": "Haroun vs fillon",
    "date": "Mon Apr 10 08:32:43 GMT+00:00 2017",
    "comment": "",
    "videoThumbnail": "2130837654",
    "type": "others",
    "contentId": "2KthZlrRxkk",
    "source": "Youtube",
    "user_id": "32A8E68F-17F1-4628-A8B7-D922467CF9CF",
    "url": "https://r2---sn-4gxx-25ge7.googlevideo.com/videoplayback?pcm2cms=yes&mt=1491813742&dur=105.697&lmt=1480649634666143&ratebypass=yes&requiressl=yes&initcwndbps=917500&mime=video%2Fmp4&key=yt6&nh=EAE&upn=PID_aslYHec&expire=1491835462&itag=22&sparams=dur%2Cei%2Cid%2Cinitcwndbps%2Cip%2Cipbits%2Citag%2Clmt%2Cmime%2Cmm%2Cmn%2Cms%2Cmv%2Cnh%2Cpcm2cms%2Cpl%2Cratebypass%2Crequiressl%2Csource%2Cupn%2Cexpire&signature=0AEE72FEBF6F594824890BC4CD724D2490A4EC4E.09C148A67F04CE11D9EA31D167684F1F198A9CD9&ip=88.182.182.86&source=youtube&ei=5kXrWM7jEs6ccOicu-AM&ms=au&ipbits=0&pl=20&mv=m&id=o-AKlJbtVYHvzWCfjx5gtdSxaTkpUw01n8YRu_BN5uLcCG&mm=31&mn=sn-4gxx-25ge7",
    "tags": [
      "haroun",
      "fillon",
      "clash"
    ]
  },
  {
    "id": "32A8E68F-17F1-4628-A8B7-D922467CF9CF",
    "title": "haroun vs lepen",
    "date": "Mon Apr 10 23:01:44 GMT+00:00 2017",
    "comment": "",
    "videoThumbnail": "http://i.ytimg.com/vi/x4AnmwMxPuE/default.jpg",
    "type": "others",
    "contentId": "x4AnmwMxPuE",
    "source": "Youtube",
    "user_id": "32A8E68F-17F1-4628-A8B7-D922467CF9CF",
    "url": "https://r8---sn-4gxx-hgne.googlevideo.com/videoplayback?ei=2A7sWNvRBsydc6r0o6gG&pl=20&upn=6vQKNiF10nQ&ipbits=0&initcwndbps=742500&mn=sn-4gxx-hgne&mm=31&id=o-AFu9y0VqnlRWVeYIqTWnC467nUfvSJHb1xoJ8qcfZihz&mv=m&mt=1491865228&ms=au&signature=2DFEA37C2E49EE2C96414976440F76B933332AB2.6B632E943EDADFB81F86A45CA359954D3029075B&ip=88.182.182.86&lmt=1480246154967824&dur=101.587&expire=1491886904&key=yt6&mime=video%2Fmp4&sparams=dur%2Cei%2Cid%2Cinitcwndbps%2Cip%2Cipbits%2Citag%2Clmt%2Cmime%2Cmm%2Cmn%2Cms%2Cmv%2Cpl%2Cratebypass%2Crequiressl%2Csource%2Cupn%2Cexpire&source=youtube&requiressl=yes&ratebypass=yes&itag=22",
    "tags": [
      "haroun",
      "lepen",
      "clash"
    ]
  }
]